%YAML 1.1
%TAG !u! tag:unity3d.com,2011:
--- !u!114 &11400000
MonoBehaviour:
  m_ObjectHideFlags: 0
  m_CorrespondingSourceObject: {fileID: 0}
  m_PrefabInstance: {fileID: 0}
  m_PrefabAsset: {fileID: 0}
  m_GameObject: {fileID: 0}
  m_Enabled: 1
  m_EditorHideFlags: 0
  m_Script: {fileID: 11500000, guid: 6576cd90f0c950649a8c708dba6a6ea1, type: 3}
  m_Name: Camera 1
  m_EditorClassIdentifier: 
  MoveMode: 2
  Move_NearScreenEdge: 0
  ScreenBorder: 30
  Can_Rotate: 1
  Use_SpeedBoost: 1
  Use_ForwardFacing: 0
  ForwardBackwardInputName: Vertical
  LeftRightInputName: Horizontal
  MouseScrollWheelInputName: Mouse ScrollWheel
  ZoomInKey: 119
  ZoomOutKey: 115
  DragKey: 323
  RotateLeft: 97
  RotateRight: 100
  SpeedBoostKey: 304
  Move_Speed: 1
  Move_SpeedMulti: 1
  Zoom_Speed: 0.5
  Zoom_SpeedMulti: 1
  Rotate_Speed: 1
  Rotate_SpeedMulti: 1.66
  BoostMove_SpeedMulti: 2
  Height: 50
  DownMax: -100
  UpMax: 300
  LeftMax: -100
  RightMax: 100
  ZoomMin: 10
  ZoomMax: 72.3
  OrthNearPlane: 0.02
  OrthFarPlane: 1953
  FOVMin: 20
  FOVMax: 120
  PersNearPlane: 0.02
  PersFarPlane: 300
  ShowHelp: 1
  currentTab: 3
  TabStrings:
  - Main
  - Orthographic
  - Perspective
  - Inputs
